\relax 
\catcode`"\active
\select@language{polish}
\@writefile{toc}{\select@language{polish}}
\@writefile{lof}{\select@language{polish}}
\@writefile{lot}{\select@language{polish}}
\@input{rozdzial1.aux}
\@input{rozdzial2.aux}
\@input{rozdzial3.aux}
\@input{rozdzial4.aux}
\@input{rozdzial5.aux}
\@input{rozdzial6.aux}
\bibstyle{alpha}
\bibdata{bibliografia}
\bibcite{ItMSA}{And58}
\bibcite{CANIPR}{Bro12}
\bibcite{document:simulatedannealing}{BT93}
\bibcite{AbMiSfO}{Byr13}
\bibcite{MoPD}{CDBS08}
\bibcite{Cohen2001a}{Coh01}
\bibcite{GAfOCoBF}{CUB01}
\bibcite{Darwin}{Dar59}
\bibcite{article:pattern}{Dav91}
\bibcite{CSAwEA}{dCVZ}
\bibcite{Farmer}{FPP86}
\bibcite{website:newton-rhapson}{Haz01}
\bibcite{website:EAAO}{Hei03}
\bibcite{Ishida}{Ish90}
\bibcite{website:swarmintelligence}{Ken10}
\bibcite{website:gradientowe}{LM99}
\bibcite{OTaMoGD}{Mah30}
\bibcite{MoPD2}{MDJ02}
\bibcite{website:michalewicz}{MM05}
\bibcite{MoDfPaDBIwHRG}{MWF}
\bibcite{website:GNAD}{PDRa}
\bibcite{document:memetic}{PM03}
\bibcite{Varela}{Var94}
\bibcite{MoPCiECS}{WO03}
\bibcite{article:optifunctions}{Yan10}
