\relax 
\citation{website:michalewicz}
\citation{article:optifunctions}
\@writefile{toc}{\contentsline {chapter}{\numberline {5}Wyniki eksperyment\IeC {\'o}w obliczeniowych}{39}}
\@writefile{lof}{\addvspace {10\p@ }}
\@writefile{lot}{\addvspace {10\p@ }}
\newlabel{cha:Przeprowadzone eksperymenty}{{5}{39}}
\@writefile{toc}{\contentsline {section}{\numberline {5.1}Funkcje testowe}{39}}
\@writefile{toc}{\contentsline {subsection}{\numberline {5.1.1}Funkcja De Jonga}{40}}
\@writefile{lof}{\contentsline {figure}{\numberline {5.1}{\ignorespaces Wizualizacja funkcji De Jonga}}{40}}
\newlabel{deJong}{{5.1}{40}}
\@writefile{toc}{\contentsline {subsection}{\numberline {5.1.2}Funkcja Rastrigina}{41}}
\@writefile{lof}{\contentsline {figure}{\numberline {5.2}{\ignorespaces Wizualizacja funkcji Rastrigina}}{41}}
\newlabel{rastrigin}{{5.2}{41}}
\@writefile{toc}{\contentsline {subsection}{\numberline {5.1.3}Funkcja Schwefela}{42}}
\@writefile{lof}{\contentsline {figure}{\numberline {5.3}{\ignorespaces Wizualizacja funkcji Schwefela}}{42}}
\newlabel{schwefel}{{5.3}{42}}
\@writefile{toc}{\contentsline {subsection}{\numberline {5.1.4}Funkcja Michalewicza}{43}}
\@writefile{lof}{\contentsline {figure}{\numberline {5.4}{\ignorespaces Wizualizacja funkcji Michalewicza}}{43}}
\newlabel{michalewicz}{{5.4}{43}}
\@writefile{toc}{\contentsline {section}{\numberline {5.2}Miary wydajno\IeC {\'s}ci}{44}}
\@writefile{toc}{\contentsline {subsection}{\numberline {5.2.1}Minimalna warto\IeC {\'s}\IeC {\'c} fitness}{44}}
\@writefile{toc}{\contentsline {subsection}{\numberline {5.2.2}Liczba wywo\IeC {\l }a\IeC {\'n} funkcji fitness}{44}}
\@writefile{toc}{\contentsline {subsection}{\numberline {5.2.3}Odchylenie standardowe}{44}}
\@writefile{toc}{\contentsline {subsection}{\numberline {5.2.4}R\IeC {\'o}\IeC {\.z}norodno\IeC {\'s}\IeC {\'c} populacji}{44}}
\@writefile{lot}{\contentsline {table}{\numberline {5.1}{\ignorespaces Warto\IeC {\'s}ci fitness po 1.000 kroku dla r\IeC {\'o}\IeC {\.z}nych parametr\IeC {\'o}w immunologicznych.}}{45}}
\newlabel{parameterImpact}{{5.1}{45}}
\@writefile{toc}{\contentsline {section}{\numberline {5.3}Wyb\IeC {\'o}r warto\IeC {\'s}ci parametr\IeC {\'o}w}{45}}
\@writefile{toc}{\contentsline {subsection}{\numberline {5.3.1}Wp\IeC {\l }yw parametr\IeC {\'o}w na rezultaty}{46}}
\@writefile{lof}{\contentsline {figure}{\numberline {5.5}{\ignorespaces Energia nowo narodzonego a IEMAS fitness}}{47}}
\newlabel{newBornEnergyVsIemasFitness}{{5.5}{47}}
\@writefile{lof}{\contentsline {figure}{\numberline {5.6}{\ignorespaces Minimum reprodukcji a IEMAS fitness}}{47}}
\newlabel{reproductionMinimumVsIemasFitness}{{5.6}{47}}
\@writefile{lof}{\contentsline {figure}{\numberline {5.7}{\ignorespaces Przekazywana energia a IEMAS fitness}}{48}}
\newlabel{TransferredEnergyVsIemasFitness}{{5.7}{48}}
\@writefile{lof}{\contentsline {figure}{\numberline {5.8}{\ignorespaces Wykres przedstawiaj\IeC {\k a}cy liczb\IeC {\k e} wywo\IeC {\l }a\IeC {\'n} funkcji fitness w zale\IeC {\.z}no\IeC {\'s}ci od kroku symulacji}}{48}}
\newlabel{BadDeJongFitness}{{5.8}{48}}
\@writefile{lof}{\contentsline {figure}{\numberline {5.9}{\ignorespaces Wykres przedstawiaj\IeC {\k a}cy warto\IeC {\'s}\IeC {\'c} funkcji fitness w skali logarytmicznej w zale\IeC {\.z}no\IeC {\'s}ci od kroku symulacji}}{49}}
\newlabel{BadDeJongOutputcut}{{5.9}{49}}
\@writefile{lof}{\contentsline {figure}{\numberline {5.10}{\ignorespaces Wykres przedstawiaj\IeC {\k a}cy liczebno\IeC {\'s}\IeC {\'c} populacji agent\IeC {\'o}w w zale\IeC {\.z}no\IeC {\'s}ci od kroku symulacji}}{49}}
\newlabel{BadDeJongAgentPopulation}{{5.10}{49}}
\@writefile{toc}{\contentsline {section}{\numberline {5.4}Weryfikacja hipotez}{50}}
\@writefile{lof}{\contentsline {figure}{\numberline {5.11}{\ignorespaces Liczba wywo\IeC {\l }a\IeC {\'n} funkcji fitness przy funkcji De Jonga}}{51}}
\newlabel{fitnessCallsDeJong}{{5.11}{51}}
\@writefile{lof}{\contentsline {figure}{\numberline {5.12}{\ignorespaces Warto\IeC {\'s}\IeC {\'c} funkcji fitness dla banchmarka Rasrigina}}{51}}
\newlabel{fitnessRastrigin}{{5.12}{51}}
\@writefile{lof}{\contentsline {figure}{\numberline {5.13}{\ignorespaces Logarytmiczna skala momentu inercji przy funkcji DeJonga}}{52}}
\newlabel{momentOfInertiaLogDeJong}{{5.13}{52}}
\@writefile{lof}{\contentsline {figure}{\numberline {5.14}{\ignorespaces Czas dojrzewania a warto\IeC {\'s}\IeC {\'c} fitness IEMAS}}{54}}
\newlabel{maturityTimeVsIemasFitness}{{5.14}{54}}
\@writefile{lof}{\contentsline {figure}{\numberline {5.15}{\ignorespaces Czas \IeC {\.z}ycia limfocyt\IeC {\'o}w a warto\IeC {\'s}\IeC {\'c} fitness IEMAS}}{54}}
\newlabel{timeSpanVsIemasFitness}{{5.15}{54}}
\@writefile{lof}{\contentsline {figure}{\numberline {5.16}{\ignorespaces Logarytmiczna warto\IeC {\'s}\IeC {\'c} momentu inercji przy funkcji Schwefela}}{55}}
\newlabel{momentOfInertiaLogSchwefel}{{5.16}{55}}
\@writefile{lof}{\contentsline {figure}{\numberline {5.17}{\ignorespaces Warto\IeC {\'s}\IeC {\'c} fitness wraz z odchyleniem standardowym przy funkcji Schwefela do 1000 kroku}}{55}}
\newlabel{std_dev_schwefel}{{5.17}{55}}
\@setckpt{rozdzial5}{
\setcounter{page}{56}
\setcounter{equation}{0}
\setcounter{enumi}{7}
\setcounter{enumii}{3}
\setcounter{enumiii}{0}
\setcounter{enumiv}{0}
\setcounter{footnote}{0}
\setcounter{mpfootnote}{0}
\setcounter{part}{0}
\setcounter{chapter}{5}
\setcounter{section}{4}
\setcounter{subsection}{0}
\setcounter{subsubsection}{0}
\setcounter{paragraph}{0}
\setcounter{subparagraph}{0}
\setcounter{figure}{17}
\setcounter{table}{1}
\setcounter{lofdepth}{1}
\setcounter{lotdepth}{1}
\setcounter{lstnumber}{17}
\setcounter{float@type}{8}
\setcounter{lstlisting}{0}
}
